Create a Tidy Data Frame From CRU CL v.2.0 Climatology Variables on Local Disk — create_CRU_df • getCRUCLdata
…
# \donttest{
# Create a data frame of temperature from locally available files in the
# tempdir() directory.

download.file(
  url = "https://crudata.uea.ac.uk/cru/data/hrg/tmc/grid_10min_tmp.dat.gz",
  destfile = file.path(tempdir(), "grid_10min_tmp.dat.gz")
)

CRU_tmp <- create_CRU_df(tmp = TRUE, dsn = tempdir())

CRU_tmp

#> # A tibble: 6,795,144 x 4
#>      lat   lon month   tmp
#>    <dbl> <dbl> <fct> <dbl>
#>  1 -59.1 -26.6 jan     0.2
#>  2 -58.4 -26.2 jan     0.6
#>  3 -58.4 -26.4 jan     0.4
#>  4 -55.9 -67.2 jan     8  
#>  5 -55.8 -67.2 jan     8.2
#>  6 -55.8 -67.4 jan     8  
#>  7 -55.8 -67.6 jan     8.4
#>  8 -55.6 -67.4 jan     8.3
#>  9 -55.6 -67.6 jan     8.6
#> 10 -55.6 -68.1 jan     8.2
#> # … with 6,795,134 more rows
…
